{
    "salmon_version": "1.2.1",
    "index": "index_ath_salmon",
    "libType": "A",
    "threads": "8",
    "unmatedReads": "2hr_control_2.fq.gz",
    "validateMappings": [],
    "output": "2hr_control_2",
    "auxDir": "aux_info"
}